{
  "classifierPath" : "meta::pure::metamodel::type::Class",
  "content" : {
    "_type" : "class",
    "name" : "Pair",
    "package" : "underliers::benchmarks",
    "properties" : [ {
      "multiplicity" : {
        "lowerBound" : 1,
        "upperBound" : 1
      },
      "name" : "overCurrency",
      "type" : "underliers::asset::Cash"
    }, {
      "multiplicity" : {
        "lowerBound" : 1,
        "upperBound" : 1
      },
      "name" : "underCurrency",
      "type" : "underliers::asset::Cash"
    } ]
  }
}